[gd_scene load_steps=4 format=2]

[ext_resource path="res://scenes/transitions/Transition.tscn" type="PackedScene" id=1]
[ext_resource path="res://src/Main.cs" type="Script" id=2]
[ext_resource path="res://scenes/ui/menu/Menu.tscn" type="PackedScene" id=3]

[node name="Main" type="Node"]
script = ExtResource( 2 )

[node name="Transition" parent="." instance=ExtResource( 1 )]

[node name="ActiveSceneContainer" type="Node" parent="."]

[node name="Menu" parent="ActiveSceneContainer" instance=ExtResource( 3 )]
anchor_left = -0.00174004
anchor_right = -0.00174004
